{
"colors" : [
  {
    "colorName": "Yellow",
    "colorCode": "#fff100"
  },
  {
    "colorName": "Opaque Yellow",
    "colorCode": "#ecd85e"
  },
  {
    "colorName": "Golden Yellow",
    "colorCode": "#d2af47"
  },
  {
    "colorName": "Orange",
    "colorCode": "#ef7517"
  },
  {
    "colorName": "Sunflower",
    "colorCode": "#eaa72e"
  },
  {
    "colorName": "Primrose",
    "colorCode": "#f2c301"
  },
  {
    "colorName": "Red",
    "colorCode": "#c61d23"
  },
  {
    "colorName": "Tangerine",
    "colorCode": "#d94129"
  },
  {
    "colorName": "Cardinal",
    "colorCode": "#ad2d28"
  },
  {
    "colorName": "Pink",
    "colorCode": "#cc0784"
  },
  {
    "colorName": "Cherry",
    "colorCode": "#dc3565"
  },
  {
    "colorName": "Baby Pink",
    "colorCode": "#e791b7"
  },
  {
    "colorName": "Egg Plant",
    "colorCode": "#733864"
  },
  {
    "colorName": "Orchid",
    "colorCode": "#795586"
  },
  {
    "colorName": "Lilac",
    "colorCode": "#807bb4"
  },
  {
    "colorName": "Royal Purple",
    "colorCode": "#2f236c"
  },
  {
    "colorName": "Purple",
    "colorCode": "#45337e"
  },
  {
    "colorName": "Lavender",
    "colorCode": "#585397"
  },
  {
    "colorName": "Blue",
    "colorCode": "#006cb2"
  },
  {
    "colorName": "Sky Blue",
    "colorCode": "#00a5e3"
  },
  {
    "colorName": "Baby Blue",
    "colorCode": "#bae0ff"
  },
  {
    "colorName": "Conifer Green",
    "colorCode": "#355c34"
  },
  {
    "colorName": "Forest Green",
    "colorCode": "#398d44"
  },
  {
    "colorName": "Citric Green",
    "colorCode": "#88c544"
  },
  {
    "colorName": "Aqua",
    "colorCode": "#009589"
  },
  {
    "colorName": "Teal",
    "colorCode": "#51b093"
  },
  {
    "colorName": "Mint",
    "colorCode": "#91cbb2"
  },
  {
    "colorName": "Brown",
    "colorCode": "#603813"
  },
  {
    "colorName": "Light Brown",
    "colorCode": "#8a5d3b"
  },
  {
    "colorName": "Gold",
    "colorCode": "#ba812c"
  },
  {
    "colorName": "Gray",
    "colorCode": "#96a0a5"
  },
  {
    "colorName": "White",
    "colorCode": "#ffffff"
  },
  {
    "colorName": "Black",
    "colorCode": "#000000"
  }
]
}